<?xml version="1.0" encoding="UTF-8" standalone="no"?>
<svg
   xmlns:i="http://ns.adobe.com/AdobeIllustrator/10.0/"
   xmlns:dc="http://purl.org/dc/elements/1.1/"
   xmlns:cc="http://creativecommons.org/ns#"
   xmlns:rdf="http://www.w3.org/1999/02/22-rdf-syntax-ns#"
   xmlns:svg="http://www.w3.org/2000/svg"
   xmlns="http://www.w3.org/2000/svg"
   xmlns:sodipodi="http://sodipodi.sourceforge.net/DTD/sodipodi-0.dtd"
   xmlns:inkscape="http://www.inkscape.org/namespaces/inkscape"
   version="1.1"
   x="0px"
   y="0px"
   viewBox="0 0 100 125"
   style="enable-background:new 0 0 100 100;"
   xml:space="preserve"
   id="svg30"
   sodipodi:docname="calendar.svg"
   inkscape:version="0.92.3 (2405546, 2018-03-11)"><metadata
     id="metadata36"><rdf:RDF><cc:Work
         rdf:about=""><dc:format>image/svg+xml</dc:format><dc:type
           rdf:resource="http://purl.org/dc/dcmitype/StillImage" /></cc:Work></rdf:RDF></metadata><defs
     id="defs34" /><sodipodi:namedview
     pagecolor="#ffffff"
     bordercolor="#666666"
     borderopacity="1"
     objecttolerance="10"
     gridtolerance="10"
     guidetolerance="10"
     inkscape:pageopacity="0"
     inkscape:pageshadow="2"
     inkscape:window-width="1486"
     inkscape:window-height="927"
     id="namedview32"
     showgrid="false"
     inkscape:zoom="1.888"
     inkscape:cx="50"
     inkscape:cy="62.5"
     inkscape:window-x="0"
     inkscape:window-y="0"
     inkscape:window-maximized="0"
     inkscape:current-layer="svg30" /><switch
     id="switch24"><foreignObject
       requiredExtensions="http://ns.adobe.com/AdobeIllustrator/10.0/"
       x="0"
       y="0"
       width="1"
       height="1" /><g
       i:extraneous="self"
       id="g22"><g
         id="g20"><path
           d="M30.9,25.5c3.2,0,5.8-2.6,5.8-5.8V8.3c0-3.2-2.6-5.8-5.8-5.8s-5.8,2.6-5.8,5.8v11.4C25.1,22.9,27.7,25.5,30.9,25.5z"
           id="path2" /><path
           d="M69.1,25.5c3.2,0,5.8-2.6,5.8-5.8V8.3c0-3.2-2.6-5.8-5.8-5.8c-3.2,0-5.8,2.6-5.8,5.8v11.4C63.3,22.9,65.9,25.5,69.1,25.5     z"
           id="path4" /><path
           d="M83.8,15.9h-4.7v3.8c0,5.5-4.5,10-10,10c-5.5,0-10-4.5-10-10v-3.8H40.9v3.8c0,5.5-4.5,10-10,10c-5.5,0-10-4.5-10-10v-3.8     h-4.7c-7,0-12.7,5.7-12.7,12.7v56.2c0,7,5.7,12.7,12.7,12.7h67.7c7,0,12.7-5.7,12.7-12.7V28.6C96.5,21.6,90.9,15.9,83.8,15.9z      M88.1,84.8c0,2.3-1.9,4.2-4.2,4.2H16.2c-2.3,0-4.2-1.9-4.2-4.2V42h76.1V84.8z"
           id="path6" /><path
           d="M22.3,61.3H34c0.9,0,1.7-0.8,1.7-1.7v-7.5c0-0.9-0.8-1.7-1.7-1.7H22.3c-0.9,0-1.7,0.8-1.7,1.7v7.5     C20.6,60.5,21.4,61.3,22.3,61.3z"
           id="path8" /><path
           d="M44.2,61.3h11.7c0.9,0,1.7-0.8,1.7-1.7v-7.5c0-0.9-0.8-1.7-1.7-1.7H44.2c-0.9,0-1.7,0.8-1.7,1.7v7.5     C42.5,60.5,43.2,61.3,44.2,61.3z"
           id="path10" /><path
           d="M66,61.3h11.7c0.9,0,1.7-0.8,1.7-1.7v-7.5c0-0.9-0.8-1.7-1.7-1.7H66c-0.9,0-1.7,0.8-1.7,1.7v7.5     C64.3,60.5,65.1,61.3,66,61.3z"
           id="path12" /><path
           d="M22.3,80.6H34c0.9,0,1.7-0.8,1.7-1.7v-7.5c0-0.9-0.8-1.7-1.7-1.7H22.3c-0.9,0-1.7,0.8-1.7,1.7v7.5     C20.6,79.8,21.4,80.6,22.3,80.6z"
           id="path14" /><path
           d="M44.2,80.6h11.7c0.9,0,1.7-0.8,1.7-1.7v-7.5c0-0.9-0.8-1.7-1.7-1.7H44.2c-0.9,0-1.7,0.8-1.7,1.7v7.5     C42.5,79.8,43.2,80.6,44.2,80.6z"
           id="path16" /><path
           d="M66,80.6h11.7c0.9,0,1.7-0.8,1.7-1.7v-7.5c0-0.9-0.8-1.7-1.7-1.7H66c-0.9,0-1.7,0.8-1.7,1.7v7.5     C64.3,79.8,65.1,80.6,66,80.6z"
           id="path18" /></g></g></switch></svg>